781328 199339 509
575066 762439 509
319883 735049 509
139801 331041 443
960495 119953 525
706185 522867 509
526847 883126 525
125012 974698 525
773046 455478 509
923618 962584 507
194447 911954 525
193026 756226 509
751549 440994 509
119244 85143 354
801422 532041 509
879032 657732 525
316088 719499 509
146431 794172 509
568621 186722 470
660643 701039 442
216461 51540 386
47804 760108 509
320301 682759 509
182655 609507 470
395046 737475 509
124935 635050 509
478904 841170 525
257912 531363 470
223648 650315 509
662183 763007 504
681807 363022 509
798050 555117 509
136261 540726 470
486604 115432 449
209546 438907 449
791141 566131 509
772874 131399 509
645238 391073 509
807722 713859 468
345720 416444 449
32556 319105 443
578285 188804 470
127614 331808 443
410722 116338 449
683412 572065 509
899134 110471 525
952227 267074 525
499250 593728 470
897612 630159 525
360115 123946 443
970835 833613 525
227777 576598 470
825530 975106 525
371249 95733 443
148137 40587 375
97307 483085 449
751715 63370 509
937569 337132 525
479229 593845 470
932383 913062 476
746204 675015 504
145389 492622 449
336951 801952 509
212148 560746 470
110648 890409 525
409862 868777 525
668954 508379 509
560106 146608 470
199535 482984 449
768027 256903 509
660575 464987 509
365719 874660 525
476367 348795 449
471834 805040 509
447185 173688 449
498767 859929 525
693170 502742 509
565826 297013 470
173394 283131 443
916836 506540 525
368625 169582 443
949498 973392 458
574961 671419 509
350363 926502 525
531475 484709 470
411432 641122 509
472924 445329 444
226583 84401 386
184910 116027 383
142216 222552 386
561022 721192 509
67261 174871 383
201481 378899 443
537301 172101 470
600553 506066 470
50254 96945 351
891443 243818 525
939339 236496 525
318666 99141 443
56248 465190 449
980256 414977 525
809416 480795 509
678642 218394 509
921751 920047 339
337442 119829 443
828983 553321 509
639138 345184 509
89554 743039 509
753557 298263 509
693613 279477 509
515470 663446 509
218727 813530 509
92316 342765 443
457477 547319 470
831542 397505 509
256162 556421 470
827258 812711 450
764104 989747 525
960622 546290 525
227568 967137 525
279976 176325 443
41074 237057 443
2497 440335 449
286011 886470 525
497945 875065 525
711449 4647 509
942989 587290 525
852570 684273 525
88796 735366 509
201381 301849 443
488433 587814 470
44283 119689 354
207068 509727 449
449535 633055 509
253492 102148 443
817101 907265 525
488777 678194 509
989559 231754 525
756375 548967 509
802493 176958 509
345465 119994 443
604935 475417 470
25114 771114 509
494372 328128 449
507995 379365 449
896457 79113 525
802044 470927 509
137113 552731 470
170143 297890 443
226774 662733 509
